chr1	1243321	1243582
chr1	1243694	1243923
chr1	1334693	1334955
chr1	2615499	2615683
chr1	3541283	3541556
chr1	6052514	6052775
chr1	6639834	6640034
chr1	6845066	6845506
chr1	7843913	7844091
chr1	7844172	7844306
chr1	8938717	8938919
chr1	9749370	9749508
chr1	10270354	10270622
chr1	10458884	10459154
chr1	11120132	11120303
chr1	11322568	11322920
chr1	12079303	12079591
chr1	17445899	17446109
chr1	20987941	20988279
chr1	23670791	23671083
chr1	23694821	23695027
chr1	24742073	24742335
chr1	25256733	25256921
chr1	25757106	25757399
chr1	26560473	26560746
chr1	27191566	27191787
chr1	27248025	27248226
chr1	27816615	27816827
chr1	28052244	28052478
chr1	28562413	28562699
chr1	28573808	28573964
chr1	29213485	29213692
chr1	29365818	29365945
chr1	31297349	31297570
chr1	31769622	31769854
chr1	32110485	32110692
chr1	32757544	32757742
chr1	32860077	32860187
chr1	32930567	32930696
chr1	33116658	33116820
chr1	33502444	33502736
chr1	33937899	33938197
chr1	34712955	34713139
chr1	35658715	35659016
chr1	36235544	36235684
chr1	36851657	36851787
chr1	37867158	37867268
chr1	38325271	38325434
chr1	38397423	38397710
chr1	38478279	38478414
chr1	39325433	39325593
chr1	40157094	40157252
chr1	40364744	40364896
chr1	41174849	41175049
chr1	41445538	41445723
chr1	43147908	43148121
chr1	43312047	43312329
chr1	43389935	43390119
chr1	43824454	43824621
chr1	43855428	43855635
chr1	44116030	44116188
chr1	44173002	44173231
chr1	44435455	44435634
chr1	44820908	44821134
chr1	45140097	45140420
chr1	45956915	45957120
chr1	46713245	46713445
chr1	50738786	50738923
chr1	54204820	54205071
chr1	54665641	54665893
chr1	54872069	54872221
chr1	59249761	59249922
chr1	62902093	62902207
chr1	76626072	76626195
chr1	78148318	78148441
chr1	80551189	80551311
chr1	85527823	85528057
chr1	109940580	109940775
chr1	109969026	109969252
chr1	110881473	110882144
chr1	112282029	112282163
chr1	112938631	112938901
chr1	113932793	113933071
chr1	114447687	114447805
chr1	117664368	117664868
chr1	120838326	120838453
chr1	120838593	120838773
chr1	142535442	142535552
chr1	142535685	142536048
chr1	142536154	142536386
chr1	142536491	142536704
chr1	142537577	142537776
chr1	142538085	142538925
chr1	142539504	142539675
chr1	142542637	142542747
chr1	143913293	143913556
chr1	145476872	145477034
chr1	145575866	145576116
chr1	150208456	150208710
chr1	150459701	150459923
chr1	150488051	150488161
chr1	150601557	150601892
chr1	150602039	150602368
chr1	150669627	150669912
chr1	151103784	151103949
chr1	151254390	151254824
chr1	151689356	151689574
chr1	151763005	151763299
chr1	153700246	153700490
chr1	153895423	153895710
chr1	153936031	153936205
chr1	153940144	153940350
chr1	154928577	154928718
chr1	154946921	154947155
chr1	154955569	154955929
chr1	154974605	154974824
chr1	155197318	155197511
chr1	155214457	155214634
chr1	155579886	155579997
chr1	156182655	156182849
chr1	156308046	156308259
chr1	156470530	156470709
chr1	160001726	160001861
chr1	161195580	161195768
chr1	161228384	161228522
chr1	163461944	163462054
chr1	165567422	165567635
chr1	167691058	167691275
chr1	168271331	168271441
chr1	169455178	169455371
chr1	171750648	171750830
chr1	177139917	177140060
chr1	184723995	184724206
chr1	185285291	185285530
chr1	197115801	197115923
chr1	198126675	198126871
chr1	198128214	198128377
chr1	201123537	201123830
chr1	201751821	201752055
chr1	201752524	201752992
chr1	201755546	201755686
chr1	201779074	201779288
chr1	201779589	201779926
chr1	201780694	201781151
chr1	201781549	201781850
chr1	201782203	201782316
chr1	201915685	201915825
chr1	201924465	201924613
chr1	202830713	202830929
chr1	205782319	205782521
chr1	206138033	206138317
chr1	206711883	206711993
chr1	207996059	207996222
chr1	210827237	210827425
chr1	211752548	211752714
chr1	212458399	212458656
chr1	217543142	217543386
chr1	221915421	221915672
chr1	222790994	222791109
chr1	222886045	222886159
chr1	224200542	224200652
chr1	225615833	225615950
chr1	226111931	226112167
chr1	227127728	227127988
chr1	227751077	227751302
chr1	232765827	232766121
chr1	234509150	234509294
chr1	235491558	235491721
chr1	236030329	236030456
chr1	236958449	236958651
chr1	241683046	241683187
chr1	244211559	244211817
chr1	246981196	246981376
chr1	247171231	247171565
chr1	247267657	247267810
chr1	249132214	249132407
chr10	977582	977869
chr10	1094856	1094994
chr10	1095264	1095410
chr10	1102634	1102789
chr10	2434544	2434659
chr10	3214979	3215126
chr10	3827583	3827722
chr10	5454381	5454588
chr10	5931916	5932232
chr10	19547417	19547564
chr10	25013611	25013733
chr10	28592018	28592149
chr10	28966295	28966491
chr10	32049147	32049281
chr10	33682396	33682554
chr10	38774427	38774607
chr10	38789412	38789535
chr10	38798457	38798569
chr10	38805848	38806019
chr10	38806252	38806430
chr10	38815777	38815903
chr10	38872063	38872251
chr10	39082271	39082455
chr10	39084833	39084992
chr10	39085793	39086047
chr10	39094246	39094569
chr10	39096740	39096927
chr10	39107234	39107411
chr10	39114235	39114345
chr10	39118938	39119133
chr10	39121355	39121546
chr10	39133554	39133673
chr10	39137419	39137556
chr10	39141151	39141267
chr10	39142375	39142494
chr10	42358136	42358289
chr10	42358716	42358891
chr10	42374900	42375033
chr10	42375861	42376083
chr10	42376690	42376892
chr10	42381652	42381828
chr10	42794956	42795068
chr10	42797192	42797393
chr10	42799917	42800097
chr10	42801372	42801484
chr10	42805390	42805579
chr10	42810000	42810110
chr10	42863424	42863664
chr10	46168227	46168366
chr10	46973383	46973520
chr10	46988269	46988393
chr10	46996235	46996392
chr10	47004314	47004430
chr10	47006317	47006517
chr10	47009065	47009217
chr10	47043959	47044069
chr10	58121007	58121198
chr10	59772312	59772452
chr10	62784844	62784954
chr10	70091677	70091796
chr10	70660816	70661006
chr10	71211132	71211295
chr10	74057822	74058075
chr10	74451740	74451886
chr10	75255756	75255983
chr10	75757722	75757888
chr10	76585896	76586439
chr10	79737595	79737724
chr10	79789236	79789413
chr10	91461124	91461292
chr10	96122679	96122833
chr10	99052389	99052536
chr10	99400320	99400478
chr10	101190408	101190603
chr10	101380198	101380599
chr10	101418991	101419236
chr10	102672565	102672765
chr10	102790857	102791077
chr10	103347964	103348077
chr10	103879436	103879567
chr10	104004955	104005303
chr10	104261799	104262195
chr10	104263569	104263749
chr10	104503460	104503691
chr10	104677896	104678085
chr10	104953077	104953298
chr10	105156211	105156431
chr10	105992054	105992239
chr10	106028718	106028940
chr10	120788859	120788991
chr10	124913728	124913964
chr10	125013912	125014049
chr10	130262756	130262949
chr10	130381758	130381939
chr10	131909299	131909538
chr10	132158451	132158631
chr10	132158685	132158869
chr10	134148780	134149296
chr10	134177847	134178061
chr10	134178219	134178403
chr10	134248011	134248192
chr11	535543	535756
chr11	560808	560982
chr11	568462	568610
chr11	910799	910933
chr11	1253925	1254035
chr11	3400408	3400535
chr11	3818761	3819065
chr11	4629406	4629702
chr11	5248021	5248230
chr11	9482140	9482642
chr11	10649663	10649793
chr11	10879595	10879785
chr11	11268063	11268548
chr11	11643546	11643745
chr11	13298981	13299224
chr11	13689881	13690240
chr11	14913725	14913947
chr11	17298096	17298363
chr11	17927107	17927217
chr11	19138541	19138711
chr11	20067062	20067210
chr11	20070307	20070750
chr11	20075617	20075801
chr11	22647276	22647556
chr11	31531131	31531313
chr11	34379578	34379723
chr11	34460288	34460544
chr11	45168731	45168870
chr11	47600470	47600597
chr11	47788990	47789228
chr11	55025637	55025818
chr11	57434859	57435010
chr11	57479692	57480071
chr11	57682160	57682304
chr11	58346321	58346551
chr11	58874482	58874662
chr11	59383218	59383907
chr11	61891304	61891508
chr11	62414085	62414198
chr11	62521323	62521899
chr11	62599051	62599387
chr11	62608868	62609153
chr11	63741880	63742023
chr11	63953124	63953726
chr11	64052128	64052308
chr11	64490621	64490886
chr11	64546077	64546209
chr11	64646238	64646362
chr11	64781487	64781647
chr11	64794710	64794930
chr11	64902521	64902750
chr11	65122029	65122237
chr11	65194688	65194922
chr11	65382865	65383112
chr11	65430394	65430633
chr11	65601149	65601465
chr11	66050008	66050118
chr11	66056511	66056901
chr11	66247693	66247942
chr11	66313509	66313664
chr11	66383893	66384096
chr11	66405903	66406190
chr11	66725822	66726027
chr11	67250837	67251008
chr11	67275616	67275916
chr11	67797866	67798178
chr11	68227826	68228167
chr11	68731437	68731588
chr11	71159396	71159649
chr11	71639701	71640085
chr11	71823360	71823618
chr11	71823725	71823865
chr11	73587876	73588030
chr11	75525920	75526296
chr11	76494079	76494285
chr11	77705886	77706070
chr11	82867742	82867956
chr11	95523539	95523709
chr11	105892934	105893356
chr11	105947998	105948199
chr11	106702260	106702370
chr11	107798813	107799052
chr11	117014906	117015036
chr11	117198418	117198611
chr11	118799270	118799475
chr11	118992174	118992340
chr11	119205089	119205217
chr11	123985851	123986223
chr11	124981780	124981936
chr11	125462464	125462792
chr11	125757426	125757555
chr11	133826841	133827060
chr11	134093869	134094011
chr12	2921555	2921845
chr12	2999887	3000055
chr12	6579835	6580049
chr12	6603048	6603247
chr12	6665208	6665408
chr12	6960388	6960644
chr12	6961047	6961242
chr12	7079874	7080013
chr12	7125789	7125938
chr12	7282759	7283037
chr12	8179213	8179460
chr12	14927142	14927362
chr12	14956364	14956676
chr12	27676872	27677132
chr12	28343284	28343419
chr12	31881925	31882229
chr12	41086097	41086323
chr12	46121345	46121578
chr12	46122572	46122785
chr12	49075995	49076225
chr12	49259608	49259857
chr12	49504627	49504839
chr12	49716842	49717054
chr12	50101343	50101592
chr12	50135137	50135309
chr12	50505770	50505993
chr12	51420056	51420284
chr12	51566902	51567046
chr12	51632895	51633115
chr12	53473129	53473400
chr12	53715073	53715208
chr12	53773231	53773968
chr12	53835376	53835578
chr12	54019737	54019999
chr12	54673498	54673727
chr12	54674278	54674549
chr12	54718601	54718951
chr12	54753003	54753152
chr12	56132259	56132369
chr12	56211525	56211918
chr12	56223401	56223554
chr12	56367419	56367881
chr12	56617953	56618159
chr12	56694162	56694363
chr12	56727763	56727945
chr12	56754023	56754201
chr12	56882129	56882340
chr12	57039738	57040086
chr12	57472481	57472906
chr12	57914305	57914493
chr12	58138641	58138860
chr12	67662879	67663140
chr12	68726132	68726365
chr12	76742183	76742367
chr12	95611398	95611579
chr12	98987235	98987443
chr12	104323952	104324152
chr12	105724312	105724426
chr12	107380901	107381016
chr12	108908784	108909123
chr12	109490272	109490395
chr12	109535712	109535958
chr12	110011304	110011625
chr12	110318320	110318506
chr12	111806895	111807029
chr12	112563132	112563364
chr12	113622653	113622892
chr12	113658829	113659329
chr12	117175849	117176011
chr12	118454419	118454530
chr12	120315040	120315326
chr12	120638886	120639145
chr12	121124161	121124332
chr12	121837679	121837888
chr12	122028195	122028314
chr12	123237268	123237399
chr12	123459214	123459473
chr12	123459562	123459796
chr12	123717273	123717478
chr12	123717729	123717952
chr12	123868483	123868753
chr12	124196769	124196921
chr12	124577490	124577875
chr12	125534119	125534389
chr12	127646998	127647110
chr12	129308484	129308711
chr12	133263922	133264266
chr12	133287258	133287389
chr12	133485048	133485372
chr13	20207638	20207856
chr13	20437720	20437998
chr13	20532651	20532926
chr13	26795913	26796158
chr13	28194688	28194904
chr13	29293056	29293285
chr13	36285220	36285330
chr13	41240817	41240984
chr13	41345241	41345418
chr13	44716081	44716250
chr13	46038939	46039072
chr13	52586325	52586570
chr13	53645420	53645543
chr13	60738023	60738251
chr13	66127340	66127450
chr13	73632918	73633153
chr13	95253913	95254110
chr13	101327109	101327326
chr13	103249167	103249277
chr13	107187953	107188219
chr13	107522035	107522145
chr13	110438931	110439045
chr13	111267768	111267898
chr13	111365382	111365661
chr13	111367720	111368205
chr13	113951353	113951528
chr14	19793021	19793131
chr14	20811540	20811831
chr14	20937429	20937562
chr14	21737552	21738038
chr14	21905341	21905596
chr14	23398528	23398756
chr14	23476294	23476536
chr14	23755305	23755566
chr14	23790277	23790692
chr14	23938451	23938729
chr14	23938846	23938966
chr14	24583331	24583794
chr14	24583882	24584072
chr14	24584191	24584481
chr14	24610809	24610990
chr14	24641116	24641227
chr14	27067754	27067864
chr14	39644238	39644437
chr14	41530542	41530678
chr14	41785137	41785247
chr14	45603682	45603869
chr14	45604972	45605152
chr14	47143845	47143955
chr14	50087313	50087534
chr14	51561819	51562052
chr14	52456077	52456309
chr14	52535833	52535952
chr14	53019319	53019625
chr14	54863489	54863671
chr14	55658307	55658484
chr14	58764906	58765044
chr14	64010053	64010273
chr14	65006965	65007488
chr14	65878395	65878625
chr14	69446094	69446204
chr14	73360836	73360967
chr14	73393013	73393203
chr14	73925179	73925562
chr14	74551135	74551296
chr14	74960269	74960473
chr14	75469422	75469635
chr14	75530674	75530926
chr14	76127151	76127424
chr14	77031130	77031240
chr14	77279260	77279424
chr14	77647766	77647920
chr14	77647972	77648188
chr14	77746421	77746549
chr14	77786631	77786851
chr14	78083094	78083462
chr14	82000159	82000444
chr14	89882483	89882637
chr14	91527295	91527483
chr14	92142368	92142478
chr14	94492492	94492785
chr14	94547499	94547707
chr14	96001005	96001424
chr14	99947313	99947531
chr14	100070642	100070833
chr14	100705043	100705172
chr14	100842625	100842823
chr14	102414450	102414629
chr14	102991039	102991287
chr14	103800404	103800607
chr14	104181767	104182114
chr14	105218948	105219128
chr14	105219311	105219505
chr14	105957324	105957621
chr15	20566600	20566780
chr15	33486948	33487205
chr15	40331300	40331495
chr15	40401113	40401423
chr15	40697803	40698010
chr15	40732984	40733130
chr15	41575992	41576250
chr15	42264807	42264934
chr15	43212969	43213206
chr15	43398106	43398363
chr15	43785314	43785579
chr15	44487408	44487842
chr15	45571372	45571599
chr15	45694404	45694533
chr15	45753985	45754166
chr15	49103238	49103627
chr15	59397252	59397409
chr15	63720530	63720671
chr15	64673670	64673900
chr15	65186268	65186479
chr15	65341779	65341997
chr15	69113206	69113470
chr15	69452714	69452904
chr15	71055855	71056132
chr15	71579935	71580082
chr15	72490240	72490364
chr15	74666718	74666938
chr15	75165293	75165487
chr15	75743998	75744626
chr15	75746390	75746658
chr15	77223835	77224048
chr15	77363420	77363610
chr15	81616509	81616679
chr15	83419218	83419343
chr15	83478158	83478407
chr15	84083303	84083434
chr15	85144118	85144262
chr15	85174477	85174726
chr15	85259329	85259495
chr15	85923605	85923776
chr15	86338084	86338287
chr15	86439944	86440430
chr15	86440669	86440779
chr15	89164387	89164602
chr15	89631339	89631739
chr15	89787141	89787272
chr15	90118481	90118727
chr15	90728446	90728581
chr15	90808766	90808877
chr15	90895311	90895579
chr15	91537699	91537916
chr15	93425588	93425823
chr15	95657321	95657433
chr15	97600924	97601035
chr15	98503640	98503934
chr15	99395572	99395840
chr15	99791409	99791598
chr15	100882247	100882369
chr16	103579	103900
chr16	420472	420781
chr16	639188	639648
chr16	639711	640107
chr16	734316	734511
chr16	1358981	1359466
chr16	1393155	1393377
chr16	1728025	1728309
chr16	1756059	1756259
chr16	1832519	1833030
chr16	1876837	1876956
chr16	2205318	2205742
chr16	2264834	2265099
chr16	2479116	2479292
chr16	2732368	2732510
chr16	2932692	2932872
chr16	2955457	2955587
chr16	2955778	2955996
chr16	3053887	3054177
chr16	3184864	3185019
chr16	3314572	3314739
chr16	3451039	3451211
chr16	3493495	3493669
chr16	4666296	4666445
chr16	4743461	4743736
chr16	4852634	4852773
chr16	4852812	4853104
chr16	9185244	9185410
chr16	10479705	10479944
chr16	10970835	10971090
chr16	11036316	11036486
chr16	11439141	11439338
chr16	11891202	11891347
chr16	19078730	19078972
chr16	19533459	19533569
chr16	21610709	21610871
chr16	22385895	22386154
chr16	25042941	25043104
chr16	25122893	25123051
chr16	26356449	26356600
chr16	27095376	27095523
chr16	27280021	27280215
chr16	27561305	27561533
chr16	28835236	28835393
chr16	28891247	28891388
chr16	28961987	28962364
chr16	29801911	29802064
chr16	30381834	30382565
chr16	30441329	30441518
chr16	30457149	30457362
chr16	30538679	30538859
chr16	30959553	30959731
chr16	31711758	31711959
chr16	31724445	31724596
chr16	31884999	31885119
chr16	33864933	33865354
chr16	33866067	33866206
chr16	33866298	33866672
chr16	33868582	33868710
chr16	33881267	33881453
chr16	33898719	33898829
chr16	33899929	33900121
chr16	33902066	33902323
chr16	33974345	33974457
chr16	33975777	33975931
chr16	34760330	34760540
chr16	46443763	46443905
chr16	46723080	46723356
chr16	46723422	46723579
chr16	46865391	46865571
chr16	49938286	49938420
chr16	50775660	50776042
chr16	53537206	53537561
chr16	56485255	56485498
chr16	56965863	56966019
chr16	57220034	57220189
chr16	57569880	57570112
chr16	57769167	57769715
chr16	58163269	58163517
chr16	58529177	58529304
chr16	58663720	58663958
chr16	63072460	63072584
chr16	66914172	66914481
chr16	67217505	67217718
chr16	67225807	67226093
chr16	67644793	67645192
chr16	67645832	67646015
chr16	67650603	67650778
chr16	67654564	67654693
chr16	67655352	67655524
chr16	68279101	68279250
chr16	69458351	69458536
chr16	70052276	70052429
chr16	70192294	70192416
chr16	70193480	70193593
chr16	70323386	70323616
chr16	70415232	70415537
chr16	72042532	72042668
chr16	72127536	72127730
chr16	72698876	72699102
chr16	72836218	72836328
chr16	74700764	74701046
chr16	75019049	75019159
chr16	75498567	75498745
chr16	75551220	75551400
chr16	75600189	75600299
chr16	76884655	76884814
chr16	77224523	77224857
chr16	84220607	84220796
chr16	84314783	84314920
chr16	84538185	84538455
chr16	84651724	84651906
chr16	85722582	85722742
chr16	85932593	85932797
chr16	87421991	87422187
chr16	87526614	87526811
chr16	88729544	88729679
chr16	89557100	89557370
chr16	90024541	90024706
chr16	90143708	90143915
chr17	1531615	1531795
chr17	1588133	1588332
chr17	1619588	1619854
chr17	2952189	2952510
chr17	3539605	3539779
chr17	3796394	3796553
chr17	3815125	3815290
chr17	4613546	4613725
chr17	4870529	4870942
chr17	7117794	7117917
chr17	7359665	7359790
chr17	7475849	7476170
chr17	7518419	7518563
chr17	8059697	8059961
chr17	8534077	8534424
chr17	10341192	10341302
chr17	12921271	12921635
chr17	14204195	14204397
chr17	16945513	16945725
chr17	17184035	17184247
chr17	17875676	17876178
chr17	17942546	17942796
chr17	18086588	18086837
chr17	18128717	18128855
chr17	18163714	18163962
chr17	18266868	18266978
chr17	19281654	19281789
chr17	20946486	20946599
chr17	21030162	21030307
chr17	21187869	21188023
chr17	21904059	21904197
chr17	22023687	22023854
chr17	25263099	25263330
chr17	25264305	25264718
chr17	25265203	25265371
chr17	25265751	25265908
chr17	25267534	25268051
chr17	26368227	26368832
chr17	26646009	26646193
chr17	26898500	26898675
chr17	27139464	27139704
chr17	27621150	27621329
chr17	28705800	28706004
chr17	30228674	30228836
chr17	30771371	30771537
chr17	33569915	33570101
chr17	33894969	33895146
chr17	36908863	36909052
chr17	37321127	37321362
chr17	37617561	37617727
chr17	38574175	38574451
chr17	39845582	39845787
chr17	39943037	39943296
chr17	40306950	40307218
chr17	40540465	40540771
chr17	40729669	40729857
chr17	41323043	41323231
chr17	41438216	41438608
chr17	41977998	41978200
chr17	42264266	42264398
chr17	42277565	42277704
chr17	42422546	42422696
chr17	43138833	43139022
chr17	43238980	43239166
chr17	44302732	44302947
chr17	44439141	44439316
chr17	45177538	45177842
chr17	45726997	45727245
chr17	45727969	45728105
chr17	45973120	45973982
chr17	46018666	46018965
chr17	46048228	46048420
chr17	46125390	46125738
chr17	46184787	46184911
chr17	46969974	46970218
chr17	47270267	47270476
chr17	47841475	47841846
chr17	47866346	47866761
chr17	48172487	48172721
chr17	48637881	48638106
chr17	52831023	52831133
chr17	53802854	53803066
chr17	56405055	56405208
chr17	56406063	56406269
chr17	56595225	56595653
chr17	57232521	57232814
chr17	57408832	57409058
chr17	58679466	58679581
chr17	58754652	58754816
chr17	58754984	58755279
chr17	59940850	59941073
chr17	61627503	61627901
chr17	61699288	61699814
chr17	62223187	62223363
chr17	64325522	64325678
chr17	66453780	66454005
chr17	71547988	71548192
chr17	72772507	72772676
chr17	73042992	73043334
chr17	73150554	73150820
chr17	73285477	73285670
chr17	73389948	73390154
chr17	73452492	73452786
chr17	74137303	74137497
chr17	74236590	74236700
chr17	74261054	74261323
chr17	74667705	74668091
chr17	76164481	76164662
chr17	77771000	77771298
chr17	78244808	78244924
chr17	79008623	79008803
chr17	79196708	79196983
chr17	79212794	79213178
chr17	79269077	79269223
chr17	79633588	79633794
chr17	79650742	79651000
chr17	79818575	79818730
chr17	79980728	79981090
chr17	80056627	80056797
chr17	80215459	80215607
chr17	80416350	80416598
chr17	80477393	80477600
chr17	80656560	80656798
chr18	107673	107783
chr18	3410019	3410129
chr18	4510802	4510970
chr18	11149541	11149702
chr18	12991128	12991292
chr18	14132399	14132663
chr18	21826235	21826363
chr18	44126184	44126318
chr18	44126361	44126562
chr18	44526606	44526824
chr18	45242353	45242463
chr18	45457222	45457410
chr18	45457473	45457639
chr18	47018863	47019089
chr18	48405305	48405512
chr18	48724208	48724383
chr18	55102387	55102638
chr18	67873257	67873416
chr18	71959132	71959527
chr18	72265033	72265190
chr18	74204878	74205047
chr18	77905688	77905900
chr19	633601	633837
chr19	639647	639781
chr19	797182	797430
chr19	925391	925770
chr19	1039896	1040203
chr19	1040996	1041261
chr19	1205454	1205738
chr19	1260876	1261101
chr19	1449921	1450147
chr19	1490934	1491069
chr19	1507762	1508027
chr19	1542726	1542860
chr19	1652817	1653116
chr19	1790875	1791062
chr19	2269273	2269473
chr19	2739971	2740219
chr19	2783327	2783486
chr19	2841142	2841551
chr19	2900660	2900938
chr19	2944903	2945218
chr19	2950606	2950823
chr19	2977320	2977430
chr19	3035684	3035815
chr19	3094244	3094395
chr19	3344186	3344463
chr19	3494175	3494361
chr19	3557587	3557743
chr19	3971095	3971378
chr19	4065930	4066054
chr19	4124109	4124250
chr19	4153468	4153679
chr19	4246885	4247137
chr19	4402307	4402568
chr19	4457819	4457961
chr19	4471636	4471845
chr19	4471924	4472260
chr19	4474682	4474946
chr19	4639307	4639498
chr19	4867669	4867886
chr19	4909958	4910132
chr19	4968596	4969149
chr19	6110592	6110885
chr19	6279965	6280213
chr19	6372482	6372840
chr19	6424841	6425572
chr19	6737547	6737898
chr19	7694421	7694579
chr19	7723336	7723541
chr19	7894501	7895116
chr19	7939540	7939775
chr19	8008609	8008866
chr19	8070537	8070700
chr19	8408117	8408341
chr19	8454875	8455316
chr19	8478018	8478241
chr19	9945395	9945521
chr19	9945787	9946035
chr19	10362461	10362690
chr19	10399479	10399603
chr19	10491277	10491465
chr19	10828211	10828780
chr19	11266424	11266723
chr19	11456853	11457225
chr19	11485194	11485405
chr19	11485552	11485851
chr19	11491889	11492134
chr19	11639907	11640088
chr19	11750431	11750611
chr19	11805759	11805959
chr19	11849783	11849935
chr19	11877706	11877865
chr19	12035809	12035924
chr19	12405628	12405846
chr19	12444483	12444683
chr19	12476478	12476640
chr19	12512045	12512201
chr19	12551855	12552063
chr19	12595586	12595796
chr19	12662263	12662536
chr19	12847676	12848112
chr19	13049202	13049454
chr19	13858565	13858709
chr19	13885115	13885311
chr19	13905945	13906298
chr19	13944419	13944704
chr19	14062934	14063335
chr19	14117034	14117547
chr19	14228516	14228901
chr19	14247497	14248025
chr19	14530122	14530411
chr19	14606933	14607168
chr19	15236583	15236760
chr19	15334220	15334417
chr19	15344213	15344366
chr19	15490180	15490456
chr19	15490584	15490743
chr19	15529739	15530107
chr19	15947861	15948068
chr19	16222414	16222768
chr19	16606990	16607168
chr19	16770887	16771135
chr19	17400422	17400658
chr19	17414211	17414427
chr19	17420175	17420443
chr19	17448180	17448347
chr19	17858331	17858472
chr19	17883055	17883265
chr19	17970491	17970749
chr19	18303594	18304039
chr19	18314974	18315259
chr19	18414301	18414473
chr19	18433855	18434093
chr19	18654344	18654524
chr19	19030221	19030543
chr19	19143295	19143477
chr19	19174276	19174818
chr19	19249225	19249458
chr19	19496226	19496624
chr19	19729598	19729721
chr19	19779428	19779682
chr19	19932565	19932710
chr19	19976520	19976643
chr19	20011585	20011788
chr19	20150207	20150476
chr19	20188681	20188808
chr19	20277871	20278020
chr19	20349194	20349445
chr19	20607659	20607851
chr19	20748590	20748760
chr19	20844352	20844552
chr19	20958927	20959102
chr19	21105883	21106134
chr19	21182503	21182781
chr19	21203284	21203502
chr19	21264867	21265027
chr19	21324723	21324887
chr19	21541607	21541818
chr19	21579756	21579935
chr19	21657469	21657735
chr19	21688325	21688456
chr19	21751993	21752232
chr19	21950313	21950528
chr19	22018956	22019154
chr19	22034821	22035048
chr19	22816884	22817191
chr19	23299698	23299854
chr19	23433126	23433422
chr19	23578221	23578471
chr19	23941689	23941825
chr19	24097464	24097729
chr19	24526109	24526287
chr19	29768177	29768321
chr19	32896507	32896756
chr19	33165996	33166270
chr19	33462889	33463187
chr19	33864437	33864671
chr19	36087377	36087513
chr19	36119687	36120007
chr19	36139005	36139167
chr19	36193259	36193604
chr19	36239265	36239524
chr19	36248771	36249068
chr19	36485977	36486088
chr19	36505068	36505412
chr19	36606216	36606427
chr19	36822595	36822959
chr19	37288133	37288387
chr19	37742464	37742875
chr19	37808508	37808876
chr19	38893615	38893783
chr19	39340519	39341223
chr19	39421352	39421638
chr19	39832834	39833001
chr19	39881749	39882053
chr19	40324284	40324395
chr19	40950623	40950734
chr19	41082579	41082882
chr19	41220939	41221188
chr19	41256617	41256774
chr19	41283905	41284160
chr19	41769711	41770167
chr19	41870025	41870178
chr19	42580030	42580351
chr19	42759277	42759452
chr19	42772830	42773458
chr19	42784579	42784705
chr19	42901097	42901392
chr19	43097053	43097163
chr19	45393993	45394531
chr19	45681877	45682087
chr19	45873817	45874051
chr19	45972627	45972753
chr19	46087526	46087918
chr19	46148803	46149087
chr19	46195496	46195641
chr19	46195779	46195914
chr19	46220753	46220984
chr19	46296039	46296235
chr19	46498386	46498815
chr19	47164656	47164833
chr19	47551773	47552109
chr19	48111953	48112077
chr19	48836226	48836387
chr19	48867520	48867630
chr19	48972135	48972627
chr19	49015120	49015289
chr19	49140765	49141155
chr19	49217498	49217616
chr19	49468381	49468550
chr19	49496557	49496825
chr19	49562072	49562190
chr19	49622393	49622612
chr19	49646267	49646477
chr19	49990636	49990866
chr19	49999395	49999554
chr19	50096705	50096904
chr19	50179986	50180546
chr19	50269702	50270218
chr19	50370495	50370661
chr19	50379376	50379748
chr19	51897468	51897696
chr19	52692928	52693293
chr19	54382735	54382911
chr19	54481559	54481717
chr19	54640691	54641489
chr19	54663437	54663852
chr19	54960243	54960388
chr19	55574574	55574712
chr19	55677956	55678224
chr19	55690737	55690900
chr19	55850702	55851315
chr19	55919545	55919697
chr19	55972960	55973414
chr19	56097274	56097458
chr19	56159255	56159668
chr19	56826494	56826661
chr19	57702730	57702884
chr19	57751856	57752011
chr19	57791656	57791898
chr19	57831718	57831905
chr19	57874727	57874888
chr19	57901129	57901309
chr19	57922408	57922571
chr19	57988899	57989027
chr19	57998943	57999161
chr19	58011115	58011333
chr19	58071144	58071299
chr19	58090223	58090372
chr19	58095364	58095547
chr19	58125502	58125637
chr19	58144361	58144607
chr19	58238921	58239104
chr19	58258058	58258268
chr19	58326275	58326395
chr19	58330952	58331130
chr19	58446744	58446888
chr19	58609657	58609820
chr19	58790129	58790313
chr19	58892522	58892792
chr19	58912608	58912887
chr19	58919849	58919996
chr19	58951434	58951658
chr19	58962844	58963034
chr19	58978313	58978458
chr19	59070931	59071083
chr19	59084137	59084358
chr19	59084706	59084927
chr2	2299355	2299609
chr2	3486967	3487419
chr2	8821974	8822225
chr2	9144048	9144226
chr2	9771116	9771314
chr2	10952929	10953127
chr2	20251430	20251639
chr2	24270225	24270467
chr2	25194530	25194877
chr2	26568708	26568928
chr2	27008603	27008920
chr2	27245094	27245204
chr2	27246213	27246332
chr2	27246987	27247192
chr2	27248457	27248617
chr2	27248738	27248900
chr2	38830122	38830349
chr2	43864234	43864459
chr2	44395117	44395390
chr2	44395440	44396038
chr2	45005983	45006218
chr2	45226101	45226211
chr2	46727460	46727672
chr2	46926120	46926274
chr2	47630063	47630302
chr2	48133745	48133874
chr2	55277668	55277899
chr2	55746627	55746798
chr2	59242233	59242343
chr2	60713313	60713536
chr2	61765395	61765836
chr2	62081640	62081896
chr2	62932416	62932892
chr2	63277846	63277964
chr2	64067929	64068136
chr2	64978138	64978349
chr2	64978406	64978606
chr2	65283280	65283522
chr2	65454712	65454902
chr2	69614370	69614515
chr2	70141923	70142246
chr2	71454162	71454473
chr2	73298411	73298679
chr2	73460349	73460635
chr2	74425622	74425772
chr2	74685221	74685582
chr2	74734741	74734958
chr2	74743474	74743723
chr2	74881219	74881402
chr2	85822704	85822881
chr2	88926912	88927410
chr2	89869226	89869409
chr2	89870630	89870799
chr2	89873229	89873373
chr2	89877176	89877286
chr2	89877867	89878144
chr2	89879022	89879329
chr2	91776301	91776446
chr2	92269265	92269399
chr2	96874507	96874709
chr2	97405743	97405987
chr2	97481849	97482058
chr2	97523734	97524003
chr2	98280499	98280680
chr2	109065535	109065685
chr2	113032991	113033154
chr2	113522174	113522442
chr2	121010148	121010457
chr2	123937440	123937550
chr2	124812617	124812728
chr2	128784934	128785080
chr2	128785655	128785807
chr2	134877311	134877498
chr2	136288723	136289028
chr2	153573940	153574216
chr2	159313268	159313397
chr2	160568897	160569008
chr2	161461219	161461329
chr2	162135201	162135378
chr2	168149357	168149517
chr2	169312625	169312792
chr2	169746922	169747085
chr2	174830080	174830274
chr2	190649042	190649210
chr2	191745400	191745564
chr2	198669092	198669335
chr2	201675995	201676122
chr2	201828337	201828583
chr2	202898337	202898457
chr2	203499582	203499716
chr2	205055845	205055955
chr2	208030897	208031042
chr2	219134861	219135075
chr2	219260905	219261122
chr2	219773761	219773928
chr2	219824095	219824378
chr2	220094305	220094573
chr2	220462572	220462725
chr2	227665880	227666098
chr2	229971426	229971536
chr2	232469486	232469596
chr2	232571698	232571925
chr2	232645925	232646168
chr2	238875372	238875570
chr2	238969517	238969691
chr2	239148710	239148820
chr2	239197396	239197619
chr2	240322652	240322832
chr2	240322925	240323144
chr2	241497394	241497542
chr2	242088764	242089025
chr20	291200	291312
chr20	3827362	3827496
chr20	3869754	3870069
chr20	17662920	17663148
chr20	18547953	18548169
chr20	23331207	23331439
chr20	24973355	24973477
chr20	26275211	26275321
chr20	26317066	26317244
chr20	29648261	29648407
chr20	29652114	29652233
chr20	29653353	29653551
chr20	29806501	29806619
chr20	29809378	29809495
chr20	29813780	29813897
chr20	29815543	29815686
chr20	29820322	29820507
chr20	29826005	29826189
chr20	29827361	29827515
chr20	29830002	29830451
chr20	29833212	29833324
chr20	30311339	30311574
chr20	30326939	30327144
chr20	31413714	31413846
chr20	32274210	32274347
chr20	32308051	32308363
chr20	33104017	33104241
chr20	34127595	34127786
chr20	34330179	34330548
chr20	34360126	34360361
chr20	35807288	35807544
chr20	39765441	39765676
chr20	40246964	40247240
chr20	42086091	42086299
chr20	43324455	43324632
chr20	44440988	44441292
chr20	44485965	44486304
chr20	44509612	44509892
chr20	44563853	44564038
chr20	45035206	45035457
chr20	45260092	45260202
chr20	47444622	47444799
chr20	47663165	47663399
chr20	48330487	48330811
chr20	48532036	48532173
chr20	48770333	48770443
chr20	56293609	56293763
chr20	57226213	57226364
chr20	57425902	57426114
chr20	57607509	57607631
chr20	59621085	59621256
chr20	60340992	60341109
chr20	60813250	60813584
chr20	60877813	60878072
chr20	61904042	61904190
chr20	62466399	62466572
chr20	62496456	62496632
chr21	9832131	9832241
chr21	10085768	10085889
chr21	10702039	10702282
chr21	10702332	10702542
chr21	10720445	10720595
chr21	10720899	10721029
chr21	10743070	10743245
chr21	10773367	10773483
chr21	10773994	10774125
chr21	10774329	10774506
chr21	10774567	10774724
chr21	10776025	10776205
chr21	10776278	10776519
chr21	10777187	10777609
chr21	10779607	10779875
chr21	10780280	10780660
chr21	10780920	10781323
chr21	10781574	10781744
chr21	10782123	10782570
chr21	10783260	10783509
chr21	10783808	10784091
chr21	10785041	10785276
chr21	10785393	10785521
chr21	10785598	10785938
chr21	10787106	10787222
chr21	10787402	10787708
chr21	10787784	10788029
chr21	10788746	10788862
chr21	10789105	10789285
chr21	10789443	10789621
chr21	10789969	10790333
chr21	10791301	10791419
chr21	10792218	10792406
chr21	10793251	10793726
chr21	10794416	10794662
chr21	10795796	10795965
chr21	10796465	10796594
chr21	10797382	10797496
chr21	10797561	10798173
chr21	10799044	10799154
chr21	10799564	10799814
chr21	10800920	10801129
chr21	10802149	10802368
chr21	10802805	10803062
chr21	10803932	10804286
chr21	10805347	10805595
chr21	10806640	10806831
chr21	10807016	10807309
chr21	10807358	10807481
chr21	10808000	10808115
chr21	10808435	10808595
chr21	10810235	10810354
chr21	10810468	10810770
chr21	10810928	10811251
chr21	10811443	10811633
chr21	10811790	10812044
chr21	10812225	10812467
chr21	10813869	10814118
chr21	10814701	10814817
chr21	10824913	10825023
chr21	10827406	10827516
chr21	10828804	10828916
chr21	10830285	10830415
chr21	10837471	10837587
chr21	10839665	10839775
chr21	10841692	10841805
chr21	10852387	10852504
chr21	10857346	10857466
chr21	11071354	11071522
chr21	11073664	11073777
chr21	11077118	11077228
chr21	11084937	11085048
chr21	11109201	11109334
chr21	11167126	11167236
chr21	11186136	11186343
chr21	11186519	11186717
chr21	15399610	15399777
chr21	26950885	26951011
chr21	27690592	27690702
chr21	28941676	28941818
chr21	30365216	30365441
chr21	30397189	30397385
chr21	32931393	32931963
chr21	34541798	34541980
chr21	34864098	34864208
chr21	35013933	35014211
chr21	35014459	35014691
chr21	38526342	38526452
chr21	38738925	38739086
chr21	43884073	43884213
chr21	44394615	44394787
chr21	46002200	46002310
chr21	47604299	47604471
chr21	47604520	47604746
chr21	47743805	47743979
chr21	47744321	47744431
chr21	48019907	48020017
chr22	16851693	16851807
chr22	18111506	18111643
chr22	18484477	18484671
chr22	19435169	19435464
chr22	19467298	19467426
chr22	19482305	19482418
chr22	20004280	20004566
chr22	20008390	20008674
chr22	20067555	20067832
chr22	21399998	21400306
chr22	21996324	21996653
chr22	23412240	23412433
chr22	23773149	23773259
chr22	24181168	24181544
chr22	25631924	25632193
chr22	27185844	27185954
chr22	28179985	28180095
chr22	29137911	29138114
chr22	29196609	29196721
chr22	29663814	29664063
chr22	29999238	29999578
chr22	30820170	30820377
chr22	30821584	30821788
chr22	31364979	31365238
chr22	35696033	35696352
chr22	35795936	35796154
chr22	36784068	36784430
chr22	37172093	37172561
chr22	37582352	37582590
chr22	38054326	38054764
chr22	38142124	38142246
chr22	38240312	38240669
chr22	39101401	39101700
chr22	39151969	39152181
chr22	39190100	39190258
chr22	39916089	39916233
chr22	39928889	39929082
chr22	40440197	40440425
chr22	40440546	40440884
chr22	41032708	41032989
chr22	41347604	41347751
chr22	41864649	41864807
chr22	42342691	42342921
chr22	42475892	42476163
chr22	43411159	43411450
chr22	43739369	43739510
chr22	44512747	44512858
chr22	46731505	46731689
chr22	50312175	50312319
chr22	50639251	50639484
chr3	1336388	1336538
chr3	9438737	9438919
chr3	9439110	9439297
chr3	9791507	9791617
chr3	9885653	9885821
chr3	13493321	13493473
chr3	13521575	13521743
chr3	14989855	14990073
chr3	15643045	15643305
chr3	25706408	25706593
chr3	27526041	27526182
chr3	31573857	31574068
chr3	33482045	33482584
chr3	37034821	37035050
chr3	38206600	38206773
chr3	39425752	39425919
chr3	42543885	42544163
chr3	45883588	45883800
chr3	47050902	47051090
chr3	47844353	47844486
chr3	48130397	48130595
chr3	48229913	48230043
chr3	48481475	48481651
chr3	49044568	49044807
chr3	49761476	49761594
chr3	49823912	49824215
chr3	49893953	49894081
chr3	50365613	50365787
chr3	50605122	50605322
chr3	51422486	51422744
chr3	51975933	51976097
chr3	52091367	52091557
chr3	57261631	57261785
chr3	61237081	61237319
chr3	85007735	85008087
chr3	88108122	88108414
chr3	90447876	90448053
chr3	93698824	93699054
chr3	95601317	95601427
chr3	98620543	98620769
chr3	98761149	98761325
chr3	100211256	100211502
chr3	101280629	101280780
chr3	101395964	101396091
chr3	101497927	101498058
chr3	105587926	105588310
chr3	107241619	107241850
chr3	111237624	111237801
chr3	113415533	113415911
chr3	114866059	114866441
chr3	114866759	114866902
chr3	119813741	119813925
chr3	121468573	121468877
chr3	125709339	125709459
chr3	127309360	127309817
chr3	127842587	127842814
chr3	129637964	129638098
chr3	129830288	129830398
chr3	131100498	131100692
chr3	135969392	135969568
chr3	136580878	136581059
chr3	148804267	148804537
chr3	149530826	149531112
chr3	154775329	154775466
chr3	156272978	156273140
chr3	167813692	167813895
chr3	179280517	179280799
chr3	182833844	182834003
chr3	183262642	183262780
chr3	183354390	183354526
chr3	185826873	185827151
chr3	194489932	194490154
chr3	195163771	195164107
chr3	196014552	196014721
chr4	29882	29992
chr4	35862	35984
chr4	52929	53324
chr4	54478	54733
chr4	124167	124415
chr4	331373	331645
chr4	467881	468157
chr4	775619	775794
chr4	1283441	1283659
chr4	1340883	1340994
chr4	2245633	2245746
chr4	2263808	2264066
chr4	2470704	2470862
chr4	3076153	3076370
chr4	4861255	4861403
chr4	6271343	6271550
chr4	7044724	7044922
chr4	7069817	7069955
chr4	7865633	7865814
chr4	20062756	20062941
chr4	26117879	26117989
chr4	40297137	40297322
chr4	42154351	42154466
chr4	48782233	48782657
chr4	49102052	49102358
chr4	49106642	49106794
chr4	49107628	49107739
chr4	49119970	49120220
chr4	49121457	49121567
chr4	49122844	49123153
chr4	49140057	49140167
chr4	49143085	49143203
chr4	49152784	49152914
chr4	49155560	49155671
chr4	49157145	49157277
chr4	49158108	49158334
chr4	49634486	49634684
chr4	49635856	49636029
chr4	49636573	49636684
chr4	49638859	49639061
chr4	49642814	49642997
chr4	49644986	49645183
chr4	49645412	49645532
chr4	49650848	49651003
chr4	49651920	49652071
chr4	49654324	49654475
chr4	49655658	49655922
chr4	49657213	49657323
chr4	52708959	52709354
chr4	53588509	53588724
chr4	76555655	76555898
chr4	83821658	83821819
chr4	87515260	87515370
chr4	89205705	89205913
chr4	89513416	89513652
chr4	96263255	96263368
chr4	100871470	100871598
chr4	102268776	102268930
chr4	108852542	108852763
chr4	111544279	111544499
chr4	119606446	119606569
chr4	123653690	123653917
chr4	134070252	134070521
chr4	140004125	140004282
chr4	141294510	141294643
chr4	148538404	148538569
chr4	149363646	149363906
chr4	156298032	156298310
chr4	156679995	156680198
chr4	166248525	166248932
chr4	174255603	174255713
chr4	175204288	175204521
chr4	184580291	184580491
chr4	184871728	184871838
chr4	186064326	186064439
chr4	190200544	190200654
chr4	190200858	190200968
chr4	190623456	190623591
chr4	190633892	190634059
chr5	7869076	7869354
chr5	8457697	8457860
chr5	14157644	14157758
chr5	14471458	14471568
chr5	14487843	14488095
chr5	14488140	14488365
chr5	14492671	14492877
chr5	14504534	14504721
chr5	14507228	14507382
chr5	14508005	14508750
chr5	14581724	14581899
chr5	23507524	23507661
chr5	24325696	24325809
chr5	31532221	31532457
chr5	32313177	32313471
chr5	33440894	33441091
chr5	34839147	34839306
chr5	43313559	43313986
chr5	43515184	43515391
chr5	55290841	55291052
chr5	65892046	65892202
chr5	74632803	74632995
chr5	82373243	82373384
chr5	89705529	89705707
chr5	96144043	96144230
chr5	98109124	98109379
chr5	100973355	100973472
chr5	108084427	108084659
chr5	108745743	108745882
chr5	112196853	112197019
chr5	115177246	115177551
chr5	120592042	120592152
chr5	126366279	126366466
chr5	137090091	137090204
chr5	137090357	137090528
chr5	137667535	137667662
chr5	139780666	139780876
chr5	139780923	139781499
chr5	140027176	140027286
chr5	140554543	140554677
chr5	140555210	140555388
chr5	140556358	140556515
chr5	140556875	140557008
chr5	140557133	140557383
chr5	140558261	140558404
chr5	140700313	140700423
chr5	145582933	145583217
chr5	145826622	145826949
chr5	148737313	148737582
chr5	149340115	149340366
chr5	149779355	149779752
chr5	150138053	150138632
chr5	150400043	150400154
chr5	150460593	150460749
chr5	151150980	151151552
chr5	153825359	153825596
chr5	156569847	156569959
chr5	159546441	159546874
chr5	162864441	162864594
chr5	171542154	171542355
chr5	171632420	171632530
chr5	172483195	172483383
chr5	172484105	172484354
chr5	176778758	176779036
chr5	176853241	176853636
chr5	177631365	177631543
chr5	178012599	178012797
chr5	179125688	179126012
chr5	179159683	179159843
chr5	179719013	179719224
chr6	7389955	7390068
chr6	7726224	7726337
chr6	11037328	11037442
chr6	15245877	15246253
chr6	20401847	20402051
chr6	29716798	29716974
chr6	30685031	30685244
chr6	30687936	30688048
chr6	31126135	31126388
chr6	31148494	31148715
chr6	31275841	31276072
chr6	31707510	31707807
chr6	31830598	31830831
chr6	32095992	32096183
chr6	32098038	32098214
chr6	32143842	32144054
chr6	32145846	32146245
chr6	32163339	32163460
chr6	32862414	32862604
chr6	33422181	33422342
chr6	34039740	34039850
chr6	35656748	35656895
chr6	36164964	36165155
chr6	36842748	36842872
chr6	38670885	38671074
chr6	42896945	42897175
chr6	43478101	43478211
chr6	46138663	46138875
chr6	48639065	48639177
chr6	52529031	52529245
chr6	62996025	62996323
chr6	63239213	63239323
chr6	63388412	63388536
chr6	63990391	63990532
chr6	72130597	72130730
chr6	74104343	74104495
chr6	74230882	74231116
chr6	78174337	78174478
chr6	80247115	80247345
chr6	86679639	86679762
chr6	88299712	88299876
chr6	90539451	90539641
chr6	91124822	91124967
chr6	94129288	94129486
chr6	99282230	99282469
chr6	100912788	100913005
chr6	109330785	109330930
chr6	111195800	111195979
chr6	112194604	112194875
chr6	116937424	116937629
chr6	119670902	119671073
chr6	122720533	122720708
chr6	136571452	136571664
chr6	138488563	138488673
chr6	138610688	138610812
chr6	139094489	139094669
chr6	147523584	147523788
chr6	152171538	152171654
chr6	153304189	153304338
chr6	155635615	155635751
chr6	159527853	159528055
chr6	160183324	160183528
chr6	160211316	160211535
chr6	167040796	167040988
chr6	168160877	168161023
chr6	170489235	170489345
chr6	170863206	170863351
chr7	856107	856311
chr7	916352	916674
chr7	1177807	1178112
chr7	2419214	2419347
chr7	2671351	2671490
chr7	2883942	2884340
chr7	4442927	4443109
chr7	4815095	4815300
chr7	5085193	5085423
chr7	5562882	5563023
chr7	5566051	5566176
chr7	5609769	5609927
chr7	6144326	6144469
chr7	6676856	6676988
chr7	6746768	6746878
chr7	6769124	6769344
chr7	8008206	8008432
chr7	12727047	12727273
chr7	23053686	23053947
chr7	25019863	25020025
chr7	25896745	25896940
chr7	27368906	27369053
chr7	27702534	27702766
chr7	30066276	30066490
chr7	30544377	30544713
chr7	32497373	32497488
chr7	35570426	35570536
chr7	38217609	38217875
chr7	44122171	44122327
chr7	44163172	44163348
chr7	44646372	44646629
chr7	44836088	44836282
chr7	44887799	44888138
chr7	47325740	47325854
chr7	48074934	48075178
chr7	52990230	52990340
chr7	54826848	54827024
chr7	56119286	56119519
chr7	56174118	56174396
chr7	57547186	57547347
chr7	57547506	57547713
chr7	57549389	57549589
chr7	57549917	57550027
chr7	57551388	57551622
chr7	57553625	57553851
chr7	57554917	57555088
chr7	61739580	61739805
chr7	61752618	61752784
chr7	62403874	62403984
chr7	63774233	63774387
chr7	64254620	64254819
chr7	64363474	64363676
chr7	64954309	64954603
chr7	65215871	65216090
chr7	65540661	65540800
chr7	66093741	66093915
chr7	71525594	71525748
chr7	72298845	72299053
chr7	72936547	72936825
chr7	73097766	73097912
chr7	74508825	74508999
chr7	75368237	75368400
chr7	75623964	75624087
chr7	75677271	75677433
chr7	76178385	76178566
chr7	76751791	76751979
chr7	77325530	77325741
chr7	77427730	77428130
chr7	86974807	86975017
chr7	87257532	87257749
chr7	90893531	90893897
chr7	97066144	97066254
chr7	97736017	97736252
chr7	97881501	97881687
chr7	98874626	98874764
chr7	99070305	99070421
chr7	99698394	99698537
chr7	99699027	99699166
chr7	99746306	99746560
chr7	99774994	99775104
chr7	100136470	100136840
chr7	100183758	100184373
chr7	100209635	100209804
chr7	100825849	100826039
chr7	102004017	102004241
chr7	102389158	102389320
chr7	106809118	106809509
chr7	112579891	112580068
chr7	114522535	114522647
chr7	123050607	123050717
chr7	127292017	127292200
chr7	128379266	128379418
chr7	128784616	128784758
chr7	129074115	129074252
chr7	130353521	130353730
chr7	132766826	132767077
chr7	132937647	132937852
chr7	134331315	134331648
chr7	136927467	136927606
chr7	137686753	137687206
chr7	139044438	139044579
chr7	139045143	139045365
chr7	150076160	150076499
chr7	150725312	150725586
chr7	150974182	150974469
chr7	150974518	150974644
chr7	152160974	152161150
chr7	155090720	155090885
chr8	1771969	1772108
chr8	9413295	9413452
chr8	11659982	11660174
chr8	22102564	22102674
chr8	23386221	23386446
chr8	25315927	25316165
chr8	26240757	26240960
chr8	26711505	26711616
chr8	27168829	27169024
chr8	32983518	32983628
chr8	36480267	36480381
chr8	37619963	37620166
chr8	38034201	38034385
chr8	38243820	38244014
chr8	42010236	42010517
chr8	43794587	43794714
chr8	43819075	43819187
chr8	56010788	56010898
chr8	57123960	57124107
chr8	57124164	57124418
chr8	64273715	64273825
chr8	71314255	71314540
chr8	91807165	91807275
chr8	93977848	93977998
chr8	93978350	93978474
chr8	103875219	103875403
chr8	118532784	118532974
chr8	119124080	119124190
chr8	127707885	127708017
chr8	135469506	135469709
chr8	136327582	136327692
chr8	139884669	139884829
chr8	144450771	144451079
chr8	144512930	144513100
chr8	144679267	144679517
chr8	145159116	145159492
chr8	145582134	145582314
chr8	145688241	145688445
chr8	145703316	145703490
chr8	146126796	146126947
chr8	146176124	146176312
chr9	10225	10406
chr9	2015034	2015305
chr9	4792671	4792909
chr9	16338997	16339143
chr9	19380222	19380359
chr9	23826341	23826538
chr9	26956285	26956455
chr9	33025107	33025291
chr9	33473875	33474091
chr9	34329229	34329615
chr9	34620469	34620667
chr9	34989285	34989765
chr9	35072601	35072847
chr9	35815061	35815241
chr9	37027696	37027939
chr9	37465451	37465955
chr9	72653362	72653522
chr9	74526160	74526402
chr9	80911845	80912057
chr9	86595077	86595333
chr9	91933339	91933450
chr9	96215819	96216025
chr9	96928286	96928584
chr9	96928956	96929183
chr9	98637824	98637972
chr9	99180639	99180856
chr9	99212276	99212416
chr9	104295730	104296104
chr9	115480421	115480531
chr9	119449454	119449642
chr9	123476761	123476998
chr9	125703086	125703238
chr9	127905749	127906012
chr9	128003609	128003984
chr9	128508334	128508546
chr9	129676897	129677137
chr9	130007443	130007656
chr9	130158978	130159399
chr9	130461689	130461898
chr9	130693039	130693207
chr9	130743348	130743541
chr9	130829576	130829957
chr9	130830162	130830274
chr9	131486359	131486597
chr9	131843014	131843464
chr9	131940540	131940782
chr9	133588023	133588278
chr9	134248809	134249088
chr9	135849228	135849354
chr9	135905802	135906118
chr9	139294543	139294777
chr9	139743601	139743897
chr9	139760740	139760890
chr9	139780646	139780951
chr9	140095236	140095512
chr9	140118058	140118180
chr9	140135397	140135779
chr9	140473303	140473470
chrGL000193.1	86339	86537
chrGL000193.1	90873	91065
chrGL000193.1	111565	111675
chrGL000199.1	158267	158450
chrGL000214.1	23457	23661
chrGL000214.1	30563	30792
chrGL000214.1	74482	74592
chrGL000214.1	134431	134600
chrGL000216.1	510	629
chrGL000216.1	2343	2523
chrGL000216.1	2854	2964
chrGL000216.1	3873	4001
chrGL000216.1	4943	5120
chrGL000216.1	5497	5711
chrGL000216.1	9587	9697
chrGL000216.1	11147	11320
chrGL000216.1	18857	19003
chrGL000216.1	19278	19450
chrGL000216.1	19543	19851
chrGL000216.1	20319	20520
chrGL000216.1	21307	21707
chrGL000216.1	29380	29546
chrGL000216.1	32949	33062
chrGL000216.1	38079	38247
chrGL000216.1	57460	57625
chrGL000216.1	58705	58878
chrGL000216.1	63193	63303
chrGL000216.1	63380	63507
chrGL000216.1	64996	65202
chrGL000216.1	80832	80944
chrGL000219.1	50931	51115
chrGL000219.1	56710	56849
chrGL000220.1	117850	118000
chrGL000220.1	118350	118478
chrGL000220.1	118585	119116
chrGL000220.1	119170	119288
chrGL000220.1	119605	120027
chrGL000220.1	120162	120610
chrGL000220.1	120678	120799
chrGL000220.1	120887	121254
chrGL000220.1	121327	122065
chrGL000220.1	122236	122734
chrGL000220.1	122853	123819
chrGL000220.1	123947	125151
chrGL000220.1	125530	125663
chrGL000220.1	126036	126208
chrGL000220.1	126810	127683
chrGL000220.1	127733	128586
chrGL000220.1	128854	129288
chrGL000220.1	129629	129740
chrGL000220.1	129873	130028
chrGL000220.1	130526	130771
chrGL000220.1	131207	132778
chrGL000220.1	133015	133363
chrGL000220.1	133487	133693
chrGL000220.1	133986	134581
chrGL000220.1	134786	136439
chrGL000220.1	136584	137839
chrGL000220.1	137978	138170
chrGL000220.1	138766	138918
chrGL000220.1	139606	142985
chrGL000220.1	143812	144537
chrGL000220.1	144863	144996
chrGL000220.1	145262	145447
chrGL000224.1	4276	4536
chrGL000224.1	38736	38916
chrGL000224.1	75576	75699
chrGL000224.1	84366	84572
chrGL000224.1	87530	87724
chrGL000224.1	150012	150180
chrGL000225.1	690	957
chrGL000225.1	2399	2520
chrGL000225.1	6577	6707
chrGL000225.1	8657	8830
chrGL000225.1	9194	9338
chrGL000225.1	14226	14356
chrGL000225.1	14985	15142
chrGL000225.1	22787	22997
chrGL000225.1	23716	23932
chrGL000225.1	31855	32057
chrGL000225.1	34622	34740
chrGL000225.1	36569	36679
chrGL000225.1	37103	37216
chrGL000225.1	39123	39293
chrGL000225.1	42208	42466
chrGL000225.1	44476	44593
chrGL000225.1	54527	54774
chrGL000225.1	57418	57599
chrGL000225.1	62318	62457
chrGL000225.1	67200	67378
chrGL000225.1	73079	73258
chrGL000225.1	76969	77087
chrGL000225.1	81288	81441
chrGL000225.1	115452	115633
chrGL000225.1	121946	122056
chrGL000225.1	127931	128048
chrGL000225.1	140494	140711
chrGL000225.1	198507	198660
chrGL000229.1	3419	3558
chrGL000231.1	15572	15741
chrGL000231.1	24551	24729
chrGL000234.1	23524	23770
chrGL000234.1	39967	40222
chrGL000235.1	604	719
chrGL000241.1	4968	5089
chrX	1710347	1710478
chrX	1780001	1780763
chrX	2375210	2375424
chrX	2382091	2382410
chrX	2387591	2387717
chrX	3732910	3733135
chrX	17755419	17755532
chrX	40439949	40440161
chrX	44345430	44345607
chrX	46696228	46696423
chrX	46988478	46988803
chrX	47221559	47221810
chrX	47415527	47415779
chrX	47420426	47420641
chrX	47497035	47497193
chrX	48380057	48380234
chrX	48534796	48534963
chrX	48595651	48595770
chrX	48815582	48815846
chrX	48958150	48958296
chrX	49047388	49047975
chrX	49125543	49125882
chrX	49126051	49126217
chrX	52004928	52005076
chrX	53024683	53024851
chrX	55187578	55187688
chrX	61881403	61881584
chrX	62975024	62975217
chrX	63425595	63425804
chrX	64754639	64754877
chrX	70401923	70402076
chrX	71314877	71315037
chrX	74493761	74493986
chrX	77359537	77359704
chrX	79212612	79212771
chrX	80377164	80377371
chrX	85403277	85403387
chrX	100662982	100663166
chrX	102941630	102941833
chrX	112084755	112084918
chrX	119831166	119831293
chrX	128977838	128978037
chrX	135962929	135963090
chrX	151999238	151999533
chrX	153059469	153059738
chrX	153200455	153200591
chrX	153363333	153363494
chrX	153656780	153657047
chrX	154444555	154444733
chrX	155259924	155260045
chrY	9954085	9954195
chrY	13138747	13138858
chrY	13140469	13140580
chrY	13140642	13140900
chrY	13141901	13142011
chrY	13193991	13194115
chrY	13194851	13195116
chrY	13196225	13196453
chrY	13446619	13446753
chrY	13447093	13447243
chrY	13447315	13447472
chrY	13448182	13448464
chrY	13448652	13449214
chrY	13449306	13449705
chrY	13449971	13450110
chrY	13450477	13450651
chrY	13450779	13451000
chrY	13451158	13451362
chrY	13455211	13455348
chrY	13456414	13456617
chrY	13457041	13457349
chrY	13457620	13457744
chrY	13463216	13463340
chrY	13468721	13469033
chrY	13469968	13470160
chrY	13471737	13471859
chrY	13476569	13476682
chrY	13478259	13478378
chrY	13488792	13488976
chrY	13650515	13650848
chrY	13665983	13666137
chrY	13667342	13667464
chrY	13675652	13675762
chrY	13686959	13687469
chrY	13687522	13687646
chrY	13687685	13687966
chrY	13688090	13688326
chrY	13689177	13689341
chrY	13689695	13689980
chrY	13693500	13693680
chrY	13694861	13695265
chrY	13705991	13706103
chrY	13799225	13799335
chrY	13802195	13802377
chrY	13804122	13804346
chrY	13804733	13804845
chrY	13806101	13806284
chrY	13809907	13810044
chrY	13810173	13810359
chrY	13815579	13815692
chrY	13830131	13830285
chrY	13847095	13847264
chrY	13867781	13867891
chrY	28784279	28784797
chrY	28784987	28785097
chrY	28787926	28788206
chrY	28789128	28789264
chrY	28789408	28789569
chrY	28798596	28798706
chrY	28798781	28799035
chrY	28799088	28799278
chrY	28800068	28800335
chrY	28800467	28800583
chrY	28809799	28809964
chrY	28816532	28817633
chrY	28817738	28817922
chrY	58827269	58827426
chrY	58855986	58856171
chrY	58862646	58862757
chrY	58972118	58972352
chrY	58974887	58975012
chrY	58975454	58975627
chrY	58975708	58975988
chrY	58976168	58976676
chrY	58976755	58977020
chrY	58977131	58977643
chrY	58977768	58978049
chrY	58978388	58978602
chrY	58978675	58979662
chrY	58979779	58980003
chrY	58980172	58980289
chrY	58980375	58980777
chrY	58980920	58981245
chrY	58981764	58981908
chrY	58982008	58982241
chrY	58982640	58982896
chrY	58983022	58983314
chrY	59017060	59017192
